Introduction to R Part 1
…
The %>% operator

# group by and summarise
library(dplyr)

bnames <- read.csv("data/bnames.csv",stringsAsFactors = FALSE)

group_by(bnames, name, year)

## Source: local data frame [258,000 x 5]
## Groups: name, year [244,078]
## 
##     year    name     prop   sex soundex
##    <int>   <chr>    <dbl> <chr>   <chr>
## 1   1880    John 0.081541   boy    J500
## 2   1880 William 0.080511   boy    W450
## 3   1880   James 0.050057   boy    J520
## 4   1880 Charles 0.045167   boy    C642
## 5   1880  George 0.043292   boy    G620
## 6   1880   Frank 0.027380   boy    F652
## 7   1880  Joseph 0.022229   boy    J210
## 8   1880  Thomas 0.021401   boy    T520
## 9   1880   Henry 0.020641   boy    H560
## 10  1880  Robert 0.020404   boy    R163
## # ... with 257,990 more rows

bnames %>% group_by(., name, year)

## Source: local data frame [258,000 x 5]
## Groups: name, year [244,078]
## 
##     year    name     prop   sex soundex
##    <int>   <chr>    <dbl> <chr>   <chr>
## 1   1880    John 0.081541   boy    J500
## 2   1880 William 0.080511   boy    W450
## 3   1880   James 0.050057   boy    J520
## 4   1880 Charles 0.045167   boy    C642
## 5   1880  George 0.043292   boy    G620
## 6   1880   Frank 0.027380   boy    F652
## 7   1880  Joseph 0.022229   boy    J210
## 8   1880  Thomas 0.021401   boy    T520
## 9   1880   Henry 0.020641   boy    H560
## 10  1880  Robert 0.020404   boy    R163
## # ... with 257,990 more rows

bnames %>% group_by(name, year)

## Source: local data frame [258,000 x 5]
## Groups: name, year [244,078]
## 
##     year    name     prop   sex soundex
##    <int>   <chr>    <dbl> <chr>   <chr>
## 1   1880    John 0.081541   boy    J500
## 2   1880 William 0.080511   boy    W450
## 3   1880   James 0.050057   boy    J520
## 4   1880 Charles 0.045167   boy    C642
## 5   1880  George 0.043292   boy    G620
## 6   1880   Frank 0.027380   boy    F652
## 7   1880  Joseph 0.022229   boy    J210
## 8   1880  Thomas 0.021401   boy    T520
## 9   1880   Henry 0.020641   boy    H560
## 10  1880  Robert 0.020404   boy    R163
## # ... with 257,990 more rows
…
